Vintage Sparse PCA for Semi-Parametric Factor Analysis • vsp
…
get_varimax_z(fa)
#> # A tibble: 184 × 31
#>    id         z01      z02      z03      z04      z05      z06      z07      z08
#>    <chr>    <dbl>    <dbl>    <dbl>    <dbl>    <dbl>    <dbl>    <dbl>    <dbl>
#>  1 row0…  2.42e-4 -0.00245 -2.99e-2  3.37e-4  9.96e-5 -0.0114  -0.00849  0.502  
#>  2 row0… -2.52e-3  0.00135  6.70e-4 -1.63e-1 -1.47e-2  0.0471   0.190    0.00181
#>  3 row0…  2.98e-4 -0.100    1.17e-4 -3.62e-3 -2.06e-2  0.187   -0.158    0.00303
#>  4 row0… -7.75e-5 -0.0183   1.17e-4  5.42e-2 -5.58e-3  0.00165 -0.0367  -0.00106
#>  5 row0… -2.31e-3  0.00150  2.57e-1 -1.42e-2 -4.38e-2  0.00629  1.18    -0.0179 
#>  6 row0… -3.46e-2 -0.0527  -2.61e-2 -1.26e-2 -1.83e-2  0.0282   0.408   -0.0286 
#>  7 row0… -1.08e-3 -0.327   -6.01e-1 -6.98e-2 -9.85e-2 -0.0709   0.509    0.0511 
#>  8 row0…  1.58e-2 -0.0518  -1.34e-2 -1.03e-2 -4.12e-3 -0.0139   0.225   -0.0244 
#>  9 row0…  2.22e-3  0.0752   3.30e-2 -6.50e-4 -5.00e-1 -0.0278  -0.0740  -0.00556
#> 10 row0…  7.13e-4 -0.0119   1.95e-2 -5.06e-3 -7.08e-3  0.00341 -0.00369 13.4    
#> # ℹ 174 more rows
#> # ℹ 22 more variables: z09 <dbl>, z10 <dbl>, z11 <dbl>, z12 <dbl>, z13 <dbl>,
#> #   z14 <dbl>, z15 <dbl>, z16 <dbl>, z17 <dbl>, z18 <dbl>, z19 <dbl>,
#> #   z20 <dbl>, z21 <dbl>, z22 <dbl>, z23 <dbl>, z24 <dbl>, z25 <dbl>,
#> #   z26 <dbl>, z27 <dbl>, z28 <dbl>, z29 <dbl>, z30 <dbl>
…
