Get most important hubs for each Z factor — get_z_hubs • vsp
…
get_z_hubs(fa)
#> # A tibble: 300 × 3
#> # Groups:   factor [30]
#>    id     factor loading
#>    <chr>  <chr>    <dbl>
#>  1 row179 z01    13.6   
#>  2 row181 z01     0.159 
#>  3 row110 z01     0.103 
#>  4 row073 z01     0.0611
#>  5 row097 z01     0.0463
#>  6 row075 z01    -0.0416
#>  7 row106 z01    -0.0407
#>  8 row058 z01     0.0405
#>  9 row164 z01     0.0398
#> 10 row006 z01    -0.0346
#> # ℹ 290 more rows
get_y_hubs(fa)
#> # A tibble: 300 × 3
#> # Groups:   factor [30]
#>    id     factor loading
#>    <chr>  <chr>    <dbl>
#>  1 col179 y01    13.6   
#>  2 col110 y01     0.217 
#>  3 col052 y01     0.217 
#>  4 col148 y01     0.198 
#>  5 col099 y01     0.156 
#>  6 col068 y01     0.142 
#>  7 col181 y01     0.113 
#>  8 col114 y01    -0.0971
#>  9 col057 y01     0.0803
#> 10 col054 y01     0.0786
#> # ℹ 290 more rows
…
